[{
        "year": "2000",
        "employees": 30
    },
    {
        "year": "2001",
        "employees": 80
    },
    {
        "year": "2002",
        "employees": 100
    },
    {
        "year": "2003",
        "employees": 73
    },
    {
        "year": "2004",
        "employees": 95
    },
    {
        "year": "2005",
        "employees": 112
    },
    {
        "year": "2006",
        "employees": 123
    },
    {
        "year": "2007",
        "employees": 156
    },
    {
        "year": "2008",
        "employees": 123
    },
    {
        "year": "2009",
        "employees": 190
    },
    {
        "year": "2010",
        "employees": 280
    },
    {
        "year": "2011",
        "employees": 310
    },
    {
        "year": "2012",
        "employees": 267
    },
    {
        "year": "2013",
        "employees": 360
    },
    {
        "year": "2014",
        "employees": 365
    },
    {
        "year": "2015",
        "employees": 390
    },
    {
        "year": "2016",
        "employees": 455
    },
    {
        "year": "2017",
        "employees": 435
    }
]